Sevenr Project
…
linear_reg() |>
  set_engine("lm") |>
  fit(wealth.worth.in.billions ~ company.sector, data = variable_filter) |>
  tidy()

# A tibble: 216 × 5
   term                          estimate std.error statistic     p.value
   <chr>                            <dbl>     <dbl>     <dbl>       <dbl>
 1 (Intercept)                      1.25       2.64    0.473  0.636      
 2 company.sector  Oil refining     1.95       4.58    0.426  0.670      
 3 company.sector casinos          -0.250      4.58   -0.0546 0.956      
 4 company.sector Communications    9.55       4.58    2.09   0.0377     
 5 company.sector fashion           4.05       4.58    0.885  0.377      
 6 company.sector finance           3.25       4.58    0.710  0.478      
 7 company.sector Finance           8.08       3.24    2.50   0.0131     
 8 company.sector Oil refining      1.95       4.58    0.426  0.670      
 9 company.sector retail            9.20       3.74    2.46   0.0143     
10 company.sector software         24.7        4.58    5.41   0.000000124
# … with 206 more rows
…
linear_reg() |>
  set_engine("lm") |>
  fit(wealth.worth.in.billions ~ company.sector, data = yes_inherited) |>
  tidy()

# A tibble: 96 × 5
   term                                estimate std.error statistic p.value
   <chr>                                  <dbl>     <dbl>     <dbl>   <dbl>
 1 (Intercept)                            1.40       3.50    0.400   0.689 
 2 company.sector  Oil refining           1.80       4.94    0.364   0.716 
 3 company.sector fashion                 3.90       4.94    0.789   0.432 
 4 company.sector Finance                 0.900      4.94    0.182   0.856 
 5 company.sector Oil refining            1.80       4.94    0.364   0.716 
 6 company.sector retail                  9.05       4.28    2.11    0.0365
 7 company.sectoradvertising             -0.400      4.94   -0.0809  0.936 
 8 company.sectoraerospace and defense    1.70       4.94    0.344   0.732 
 9 company.sectorauto dealerships         1.60       4.94    0.324   0.747 
10 company.sectorauto engines             0.900      4.94    0.182   0.856 
# … with 86 more rows
…
linear_reg() |>
  set_engine("lm") |>
  fit(wealth.worth.in.billions ~ company.sector, data = not_inherited) |>
  tidy()

# A tibble: 155 × 5
   term                                estimate std.error statistic  p.value
   <chr>                                  <dbl>     <dbl>     <dbl>    <dbl>
 1 (Intercept)                            1.10       3.89    0.283  7.78e- 1
 2 company.sector casinos                -0.100      5.50   -0.0182 9.86e- 1
 3 company.sector Communications          9.70       5.50    1.76   7.97e- 2
 4 company.sector finance                 3.40       5.50    0.618  5.37e- 1
 5 company.sector Finance                10.6        4.49    2.35   1.98e- 2
 6 company.sector software               24.9        5.50    4.53   1.16e- 5
 7 company.sector Software               57.6        5.50   10.5    7.12e-20
 8 company.sector technology              0.900      5.50    0.164  8.70e- 1
 9 company.sectoradvertising              0.500      4.35    0.115  9.09e- 1
10 company.sectoragricultural products    2.50       5.50    0.455  6.50e- 1
# … with 145 more rows
…
